{
  "files": {
    "main.css": "/static/css/main.f4ff0fd1.chunk.css",
    "main.js": "/static/js/main.acf1d4b0.chunk.js",
    "main.js.map": "/static/js/main.acf1d4b0.chunk.js.map",
    "runtime-main.js": "/static/js/runtime-main.0a024e51.js",
    "runtime-main.js.map": "/static/js/runtime-main.0a024e51.js.map",
    "static/css/2.6a906a3b.chunk.css": "/static/css/2.6a906a3b.chunk.css",
    "static/js/2.32dfc199.chunk.js": "/static/js/2.32dfc199.chunk.js",
    "static/js/2.32dfc199.chunk.js.map": "/static/js/2.32dfc199.chunk.js.map",
    "index.html": "/index.html",
    "precache-manifest.f0b50e5ea731c8b8ab758d6468c19caf.js": "/precache-manifest.f0b50e5ea731c8b8ab758d6468c19caf.js",
    "service-worker.js": "/service-worker.js",
    "static/css/2.6a906a3b.chunk.css.map": "/static/css/2.6a906a3b.chunk.css.map",
    "static/css/main.f4ff0fd1.chunk.css.map": "/static/css/main.f4ff0fd1.chunk.css.map",
    "static/js/2.32dfc199.chunk.js.LICENSE": "/static/js/2.32dfc199.chunk.js.LICENSE",
    "static/media/404.png": "/static/media/404.5510aeaf.png",
    "static/media/fbsocial.svg": "/static/media/fbsocial.59d01a2e.svg",
    "static/media/fbsocial_a.svg": "/static/media/fbsocial_a.76218cbf.svg",
    "static/media/instagramsocial.svg": "/static/media/instagramsocial.2010f3d3.svg",
    "static/media/instagramsocial_a.svg": "/static/media/instagramsocial_a.4afbb191.svg",
    "static/media/logo_jollie.svg": "/static/media/logo_jollie.a28f8160.svg",
    "static/media/shop_hq.jpg": "/static/media/shop_hq.01c92b61.jpg"
  },
  "entrypoints": [
    "static/js/runtime-main.0a024e51.js",
    "static/css/2.6a906a3b.chunk.css",
    "static/js/2.32dfc199.chunk.js",
    "static/css/main.f4ff0fd1.chunk.css",
    "static/js/main.acf1d4b0.chunk.js"
  ]
}