<?xml version="1.0" encoding="utf-8"?>
<!-- Generator: Adobe Illustrator 24.0.0, SVG Export Plug-In . SVG Version: 6.00 Build 0)  -->
<svg version="1.1" id="Layer_1" xmlns="http://www.w3.org/2000/svg" xmlns:xlink="http://www.w3.org/1999/xlink" x="0px" y="0px"
	 viewBox="0 0 50 50" style="enable-background:new 0 0 50 50;" xml:space="preserve">
<style type="text/css">
	.st0{fill:#625152;}
</style>
<g>
	<path class="st0" d="M25.08,4.42c11.38,0,20.65,9.26,20.65,20.64c0,11.38-9.26,20.65-20.65,20.65c-11.38,0-20.64-9.26-20.64-20.65
		C4.44,13.68,13.7,4.42,25.08,4.42 M25.08,1.15c-13.21,0-23.92,10.71-23.92,23.92c0,13.21,10.71,23.92,23.92,23.92
		C38.29,48.99,49,38.28,49,25.07C49,11.86,38.29,1.15,25.08,1.15L25.08,1.15z"/>
</g>
<g>
	<path class="st0" d="M37.63,19.24c-0.17-1.67-0.81-3.14-2.05-4.32c-1.3-1.24-2.9-1.79-4.65-1.89c-2.98-0.16-10.05-0.27-12.53,0.14
		c-2.84,0.46-4.7,2.12-5.48,4.92c-0.6,2.16-0.48,12.09-0.13,14.22c0.48,2.91,2.2,4.78,5.09,5.53c2,0.52,11.82,0.45,14.03,0.09
		c2.92-0.47,4.79-2.18,5.55-5.07C38.04,30.65,37.84,21.24,37.63,19.24z M35.3,31.9c-0.34,2.21-1.81,3.58-4.03,3.83
		c-2.04,0.22-11.17,0.35-13.07-0.18c-1.81-0.51-2.85-1.75-3.15-3.58c-0.29-1.74-0.36-10.46,0-12.79c0.33-2.19,1.8-3.56,4.01-3.81
		c2.24-0.25,10.32-0.28,12.47,0.05c2.21,0.34,3.58,1.81,3.82,4.04C35.58,21.54,35.65,29.67,35.3,31.9z M25.17,19.05
		c-3.59,0-6.5,2.91-6.5,6.49c0,3.59,2.91,6.5,6.49,6.5c3.59,0,6.5-2.91,6.5-6.49C31.67,21.97,28.76,19.06,25.17,19.05z M25.13,29.75
		c-2.32-0.02-4.18-1.92-4.16-4.24c0.02-2.32,1.92-4.18,4.24-4.16c2.32,0.02,4.18,1.92,4.16,4.24C29.35,27.9,27.45,29.77,25.13,29.75
		z M33.45,18.81c0,0.84-0.68,1.52-1.52,1.52c-0.84,0-1.52-0.68-1.52-1.52c0-0.84,0.68-1.52,1.52-1.52
		C32.77,17.29,33.45,17.97,33.45,18.81z"/>
	<path class="st0" d="M37.63,19.24c-0.17-1.67-0.81-3.14-2.05-4.32c-1.3-1.24-2.9-1.79-4.65-1.89c-2.98-0.16-10.05-0.27-12.53,0.14
		c-2.84,0.46-4.7,2.12-5.48,4.92c-0.6,2.16-0.48,12.09-0.13,14.22c0.48,2.91,2.2,4.78,5.09,5.53c2,0.52,11.82,0.45,14.03,0.09
		c2.92-0.47,4.79-2.18,5.55-5.07C38.04,30.65,37.84,21.24,37.63,19.24z M35.3,31.9c-0.34,2.21-1.81,3.58-4.03,3.83
		c-2.04,0.22-11.17,0.35-13.07-0.18c-1.81-0.51-2.85-1.75-3.15-3.58c-0.29-1.74-0.36-10.46,0-12.79c0.33-2.19,1.8-3.56,4.01-3.81
		c2.24-0.25,10.32-0.28,12.47,0.05c2.21,0.34,3.58,1.81,3.82,4.04C35.58,21.54,35.65,29.67,35.3,31.9z M25.17,19.05
		c-3.59,0-6.5,2.91-6.5,6.49c0,3.59,2.91,6.5,6.49,6.5c3.59,0,6.5-2.91,6.5-6.49C31.67,21.97,28.76,19.06,25.17,19.05z M25.13,29.75
		c-2.32-0.02-4.18-1.92-4.16-4.24c0.02-2.32,1.92-4.18,4.24-4.16c2.32,0.02,4.18,1.92,4.16,4.24C29.35,27.9,27.45,29.77,25.13,29.75
		z M33.45,18.81c0,0.84-0.68,1.52-1.52,1.52c-0.84,0-1.52-0.68-1.52-1.52c0-0.84,0.68-1.52,1.52-1.52
		C32.77,17.29,33.45,17.97,33.45,18.81z"/>
</g>
</svg>
